^E:\MPDP\CA2\BULLETMAZE\BULLETMAZE\BULLETMAZE\AIRCRAFT.CPP
/c /I"C:\SFML-2.3.2\INCLUDE" /ZI /nologo /W3 /WX- /diagnostics:classic /sdl /Od /Oy- /D _MBCS /Gm /EHsc /RTC1 /MDd /GS /fp:precise /permissive- /Zc:wchar_t /Zc:forScope /Zc:inline /Fo"DEBUG\\" /Fd"DEBUG\VC141.PDB" /Gd /TP /analyze- E:\MPDP\CA2\BULLETMAZE\BULLETMAZE\BULLETMAZE\AIRCRAFT.CPP
^E:\MPDP\CA2\BULLETMAZE\BULLETMAZE\BULLETMAZE\ANIMATION.CPP
/c /I"C:\SFML-2.3.2\INCLUDE" /ZI /nologo /W3 /WX- /diagnostics:classic /sdl /Od /Oy- /D _MBCS /Gm /EHsc /RTC1 /MDd /GS /fp:precise /permissive- /Zc:wchar_t /Zc:forScope /Zc:inline /Fo"DEBUG\\" /Fd"DEBUG\VC141.PDB" /Gd /TP /analyze- E:\MPDP\CA2\BULLETMAZE\BULLETMAZE\BULLETMAZE\ANIMATION.CPP
^E:\MPDP\CA2\BULLETMAZE\BULLETMAZE\BULLETMAZE\APPLICATION.CPP
/c /I"C:\SFML-2.3.2\INCLUDE" /ZI /nologo /W3 /WX- /diagnostics:classic /sdl /Od /Oy- /D _MBCS /Gm /EHsc /RTC1 /MDd /GS /fp:precise /permissive- /Zc:wchar_t /Zc:forScope /Zc:inline /Fo"DEBUG\\" /Fd"DEBUG\VC141.PDB" /Gd /TP /analyze- E:\MPDP\CA2\BULLETMAZE\BULLETMAZE\BULLETMAZE\APPLICATION.CPP
^E:\MPDP\CA2\BULLETMAZE\BULLETMAZE\BULLETMAZE\BLOOMEFFECT.CPP
/c /I"C:\SFML-2.3.2\INCLUDE" /ZI /nologo /W3 /WX- /diagnostics:classic /sdl /Od /Oy- /D _MBCS /Gm /EHsc /RTC1 /MDd /GS /fp:precise /permissive- /Zc:wchar_t /Zc:forScope /Zc:inline /Fo"DEBUG\\" /Fd"DEBUG\VC141.PDB" /Gd /TP /analyze- E:\MPDP\CA2\BULLETMAZE\BULLETMAZE\BULLETMAZE\BLOOMEFFECT.CPP
^E:\MPDP\CA2\BULLETMAZE\BULLETMAZE\BULLETMAZE\BUTTON.CPP
/c /I"C:\SFML-2.3.2\INCLUDE" /ZI /nologo /W3 /WX- /diagnostics:classic /sdl /Od /Oy- /D _MBCS /Gm /EHsc /RTC1 /MDd /GS /fp:precise /permissive- /Zc:wchar_t /Zc:forScope /Zc:inline /Fo"DEBUG\\" /Fd"DEBUG\VC141.PDB" /Gd /TP /analyze- E:\MPDP\CA2\BULLETMAZE\BULLETMAZE\BULLETMAZE\BUTTON.CPP
^E:\MPDP\CA2\BULLETMAZE\BULLETMAZE\BULLETMAZE\COMMAND.CPP
/c /I"C:\SFML-2.3.2\INCLUDE" /ZI /nologo /W3 /WX- /diagnostics:classic /sdl /Od /Oy- /D _MBCS /Gm /EHsc /RTC1 /MDd /GS /fp:precise /permissive- /Zc:wchar_t /Zc:forScope /Zc:inline /Fo"DEBUG\\" /Fd"DEBUG\VC141.PDB" /Gd /TP /analyze- E:\MPDP\CA2\BULLETMAZE\BULLETMAZE\BULLETMAZE\COMMAND.CPP
^E:\MPDP\CA2\BULLETMAZE\BULLETMAZE\BULLETMAZE\COMMANDQUEUE.CPP
/c /I"C:\SFML-2.3.2\INCLUDE" /ZI /nologo /W3 /WX- /diagnostics:classic /sdl /Od /Oy- /D _MBCS /Gm /EHsc /RTC1 /MDd /GS /fp:precise /permissive- /Zc:wchar_t /Zc:forScope /Zc:inline /Fo"DEBUG\\" /Fd"DEBUG\VC141.PDB" /Gd /TP /analyze- E:\MPDP\CA2\BULLETMAZE\BULLETMAZE\BULLETMAZE\COMMANDQUEUE.CPP
^E:\MPDP\CA2\BULLETMAZE\BULLETMAZE\BULLETMAZE\COMPONENT.CPP
/c /I"C:\SFML-2.3.2\INCLUDE" /ZI /nologo /W3 /WX- /diagnostics:classic /sdl /Od /Oy- /D _MBCS /Gm /EHsc /RTC1 /MDd /GS /fp:precise /permissive- /Zc:wchar_t /Zc:forScope /Zc:inline /Fo"DEBUG\\" /Fd"DEBUG\VC141.PDB" /Gd /TP /analyze- E:\MPDP\CA2\BULLETMAZE\BULLETMAZE\BULLETMAZE\COMPONENT.CPP
^E:\MPDP\CA2\BULLETMAZE\BULLETMAZE\BULLETMAZE\CONTAINER.CPP
/c /I"C:\SFML-2.3.2\INCLUDE" /ZI /nologo /W3 /WX- /diagnostics:classic /sdl /Od /Oy- /D _MBCS /Gm /EHsc /RTC1 /MDd /GS /fp:precise /permissive- /Zc:wchar_t /Zc:forScope /Zc:inline /Fo"DEBUG\\" /Fd"DEBUG\VC141.PDB" /Gd /TP /analyze- E:\MPDP\CA2\BULLETMAZE\BULLETMAZE\BULLETMAZE\CONTAINER.CPP
^E:\MPDP\CA2\BULLETMAZE\BULLETMAZE\BULLETMAZE\DATATABLES.CPP
/c /I"C:\SFML-2.3.2\INCLUDE" /ZI /nologo /W3 /WX- /diagnostics:classic /sdl /Od /Oy- /D _MBCS /Gm /EHsc /RTC1 /MDd /GS /fp:precise /permissive- /Zc:wchar_t /Zc:forScope /Zc:inline /Fo"DEBUG\\" /Fd"DEBUG\VC141.PDB" /Gd /TP /analyze- E:\MPDP\CA2\BULLETMAZE\BULLETMAZE\BULLETMAZE\DATATABLES.CPP
^E:\MPDP\CA2\BULLETMAZE\BULLETMAZE\BULLETMAZE\EMITTERNODE.CPP
/c /I"C:\SFML-2.3.2\INCLUDE" /ZI /nologo /W3 /WX- /diagnostics:classic /sdl /Od /Oy- /D _MBCS /Gm /EHsc /RTC1 /MDd /GS /fp:precise /permissive- /Zc:wchar_t /Zc:forScope /Zc:inline /Fo"DEBUG\\" /Fd"DEBUG\VC141.PDB" /Gd /TP /analyze- E:\MPDP\CA2\BULLETMAZE\BULLETMAZE\BULLETMAZE\EMITTERNODE.CPP
^E:\MPDP\CA2\BULLETMAZE\BULLETMAZE\BULLETMAZE\ENTITY.CPP
/c /I"C:\SFML-2.3.2\INCLUDE" /ZI /nologo /W3 /WX- /diagnostics:classic /sdl /Od /Oy- /D _MBCS /Gm /EHsc /RTC1 /MDd /GS /fp:precise /permissive- /Zc:wchar_t /Zc:forScope /Zc:inline /Fo"DEBUG\\" /Fd"DEBUG\VC141.PDB" /Gd /TP /analyze- E:\MPDP\CA2\BULLETMAZE\BULLETMAZE\BULLETMAZE\ENTITY.CPP
^E:\MPDP\CA2\BULLETMAZE\BULLETMAZE\BULLETMAZE\GAMEOVERSTATE.CPP
/c /I"C:\SFML-2.3.2\INCLUDE" /ZI /nologo /W3 /WX- /diagnostics:classic /sdl /Od /Oy- /D _MBCS /Gm /EHsc /RTC1 /MDd /GS /fp:precise /permissive- /Zc:wchar_t /Zc:forScope /Zc:inline /Fo"DEBUG\\" /Fd"DEBUG\VC141.PDB" /Gd /TP /analyze- E:\MPDP\CA2\BULLETMAZE\BULLETMAZE\BULLETMAZE\GAMEOVERSTATE.CPP
^E:\MPDP\CA2\BULLETMAZE\BULLETMAZE\BULLETMAZE\GAMESERVER.CPP
/c /I"C:\SFML-2.3.2\INCLUDE" /ZI /nologo /W3 /WX- /diagnostics:classic /sdl /Od /Oy- /D _MBCS /Gm /EHsc /RTC1 /MDd /GS /fp:precise /permissive- /Zc:wchar_t /Zc:forScope /Zc:inline /Fo"DEBUG\\" /Fd"DEBUG\VC141.PDB" /Gd /TP /analyze- E:\MPDP\CA2\BULLETMAZE\BULLETMAZE\BULLETMAZE\GAMESERVER.CPP
^E:\MPDP\CA2\BULLETMAZE\BULLETMAZE\BULLETMAZE\GAMESTATE.CPP
/c /I"C:\SFML-2.3.2\INCLUDE" /ZI /nologo /W3 /WX- /diagnostics:classic /sdl /Od /Oy- /D _MBCS /Gm /EHsc /RTC1 /MDd /GS /fp:precise /permissive- /Zc:wchar_t /Zc:forScope /Zc:inline /Fo"DEBUG\\" /Fd"DEBUG\VC141.PDB" /Gd /TP /analyze- E:\MPDP\CA2\BULLETMAZE\BULLETMAZE\BULLETMAZE\GAMESTATE.CPP
^E:\MPDP\CA2\BULLETMAZE\BULLETMAZE\BULLETMAZE\KEYBINDING.CPP
/c /I"C:\SFML-2.3.2\INCLUDE" /ZI /nologo /W3 /WX- /diagnostics:classic /sdl /Od /Oy- /D _MBCS /Gm /EHsc /RTC1 /MDd /GS /fp:precise /permissive- /Zc:wchar_t /Zc:forScope /Zc:inline /Fo"DEBUG\\" /Fd"DEBUG\VC141.PDB" /Gd /TP /analyze- E:\MPDP\CA2\BULLETMAZE\BULLETMAZE\BULLETMAZE\KEYBINDING.CPP
^E:\MPDP\CA2\BULLETMAZE\BULLETMAZE\BULLETMAZE\LABEL.CPP
/c /I"C:\SFML-2.3.2\INCLUDE" /ZI /nologo /W3 /WX- /diagnostics:classic /sdl /Od /Oy- /D _MBCS /Gm /EHsc /RTC1 /MDd /GS /fp:precise /permissive- /Zc:wchar_t /Zc:forScope /Zc:inline /Fo"DEBUG\\" /Fd"DEBUG\VC141.PDB" /Gd /TP /analyze- E:\MPDP\CA2\BULLETMAZE\BULLETMAZE\BULLETMAZE\LABEL.CPP
^E:\MPDP\CA2\BULLETMAZE\BULLETMAZE\BULLETMAZE\MAIN.CPP
/c /I"C:\SFML-2.3.2\INCLUDE" /ZI /nologo /W3 /WX- /diagnostics:classic /sdl /Od /Oy- /D _MBCS /Gm /EHsc /RTC1 /MDd /GS /fp:precise /permissive- /Zc:wchar_t /Zc:forScope /Zc:inline /Fo"DEBUG\\" /Fd"DEBUG\VC141.PDB" /Gd /TP /analyze- E:\MPDP\CA2\BULLETMAZE\BULLETMAZE\BULLETMAZE\MAIN.CPP
^E:\MPDP\CA2\BULLETMAZE\BULLETMAZE\BULLETMAZE\MENUSTATE.CPP
/c /I"C:\SFML-2.3.2\INCLUDE" /ZI /nologo /W3 /WX- /diagnostics:classic /sdl /Od /Oy- /D _MBCS /Gm /EHsc /RTC1 /MDd /GS /fp:precise /permissive- /Zc:wchar_t /Zc:forScope /Zc:inline /Fo"DEBUG\\" /Fd"DEBUG\VC141.PDB" /Gd /TP /analyze- E:\MPDP\CA2\BULLETMAZE\BULLETMAZE\BULLETMAZE\MENUSTATE.CPP
^E:\MPDP\CA2\BULLETMAZE\BULLETMAZE\BULLETMAZE\MULTIPLAYERGAMESTATE.CPP
/c /I"C:\SFML-2.3.2\INCLUDE" /ZI /nologo /W3 /WX- /diagnostics:classic /sdl /Od /Oy- /D _MBCS /Gm /EHsc /RTC1 /MDd /GS /fp:precise /permissive- /Zc:wchar_t /Zc:forScope /Zc:inline /Fo"DEBUG\\" /Fd"DEBUG\VC141.PDB" /Gd /TP /analyze- E:\MPDP\CA2\BULLETMAZE\BULLETMAZE\BULLETMAZE\MULTIPLAYERGAMESTATE.CPP
^E:\MPDP\CA2\BULLETMAZE\BULLETMAZE\BULLETMAZE\MUSICPLAYER.CPP
/c /I"C:\SFML-2.3.2\INCLUDE" /ZI /nologo /W3 /WX- /diagnostics:classic /sdl /Od /Oy- /D _MBCS /Gm /EHsc /RTC1 /MDd /GS /fp:precise /permissive- /Zc:wchar_t /Zc:forScope /Zc:inline /Fo"DEBUG\\" /Fd"DEBUG\VC141.PDB" /Gd /TP /analyze- E:\MPDP\CA2\BULLETMAZE\BULLETMAZE\BULLETMAZE\MUSICPLAYER.CPP
^E:\MPDP\CA2\BULLETMAZE\BULLETMAZE\BULLETMAZE\NETWORKNODE.CPP
/c /I"C:\SFML-2.3.2\INCLUDE" /ZI /nologo /W3 /WX- /diagnostics:classic /sdl /Od /Oy- /D _MBCS /Gm /EHsc /RTC1 /MDd /GS /fp:precise /permissive- /Zc:wchar_t /Zc:forScope /Zc:inline /Fo"DEBUG\\" /Fd"DEBUG\VC141.PDB" /Gd /TP /analyze- E:\MPDP\CA2\BULLETMAZE\BULLETMAZE\BULLETMAZE\NETWORKNODE.CPP
^E:\MPDP\CA2\BULLETMAZE\BULLETMAZE\BULLETMAZE\PARTICLENODE.CPP
/c /I"C:\SFML-2.3.2\INCLUDE" /ZI /nologo /W3 /WX- /diagnostics:classic /sdl /Od /Oy- /D _MBCS /Gm /EHsc /RTC1 /MDd /GS /fp:precise /permissive- /Zc:wchar_t /Zc:forScope /Zc:inline /Fo"DEBUG\\" /Fd"DEBUG\VC141.PDB" /Gd /TP /analyze- E:\MPDP\CA2\BULLETMAZE\BULLETMAZE\BULLETMAZE\PARTICLENODE.CPP
^E:\MPDP\CA2\BULLETMAZE\BULLETMAZE\BULLETMAZE\PAUSESTATE.CPP
/c /I"C:\SFML-2.3.2\INCLUDE" /ZI /nologo /W3 /WX- /diagnostics:classic /sdl /Od /Oy- /D _MBCS /Gm /EHsc /RTC1 /MDd /GS /fp:precise /permissive- /Zc:wchar_t /Zc:forScope /Zc:inline /Fo"DEBUG\\" /Fd"DEBUG\VC141.PDB" /Gd /TP /analyze- E:\MPDP\CA2\BULLETMAZE\BULLETMAZE\BULLETMAZE\PAUSESTATE.CPP
^E:\MPDP\CA2\BULLETMAZE\BULLETMAZE\BULLETMAZE\PICKUP.CPP
/c /I"C:\SFML-2.3.2\INCLUDE" /ZI /nologo /W3 /WX- /diagnostics:classic /sdl /Od /Oy- /D _MBCS /Gm /EHsc /RTC1 /MDd /GS /fp:precise /permissive- /Zc:wchar_t /Zc:forScope /Zc:inline /Fo"DEBUG\\" /Fd"DEBUG\VC141.PDB" /Gd /TP /analyze- E:\MPDP\CA2\BULLETMAZE\BULLETMAZE\BULLETMAZE\PICKUP.CPP
^E:\MPDP\CA2\BULLETMAZE\BULLETMAZE\BULLETMAZE\PLAYER.CPP
/c /I"C:\SFML-2.3.2\INCLUDE" /ZI /nologo /W3 /WX- /diagnostics:classic /sdl /Od /Oy- /D _MBCS /Gm /EHsc /RTC1 /MDd /GS /fp:precise /permissive- /Zc:wchar_t /Zc:forScope /Zc:inline /Fo"DEBUG\\" /Fd"DEBUG\VC141.PDB" /Gd /TP /analyze- E:\MPDP\CA2\BULLETMAZE\BULLETMAZE\BULLETMAZE\PLAYER.CPP
^E:\MPDP\CA2\BULLETMAZE\BULLETMAZE\BULLETMAZE\POSTEFFECT.CPP
/c /I"C:\SFML-2.3.2\INCLUDE" /ZI /nologo /W3 /WX- /diagnostics:classic /sdl /Od /Oy- /D _MBCS /Gm /EHsc /RTC1 /MDd /GS /fp:precise /permissive- /Zc:wchar_t /Zc:forScope /Zc:inline /Fo"DEBUG\\" /Fd"DEBUG\VC141.PDB" /Gd /TP /analyze- E:\MPDP\CA2\BULLETMAZE\BULLETMAZE\BULLETMAZE\POSTEFFECT.CPP
^E:\MPDP\CA2\BULLETMAZE\BULLETMAZE\BULLETMAZE\PROJECTILE.CPP
/c /I"C:\SFML-2.3.2\INCLUDE" /ZI /nologo /W3 /WX- /diagnostics:classic /sdl /Od /Oy- /D _MBCS /Gm /EHsc /RTC1 /MDd /GS /fp:precise /permissive- /Zc:wchar_t /Zc:forScope /Zc:inline /Fo"DEBUG\\" /Fd"DEBUG\VC141.PDB" /Gd /TP /analyze- E:\MPDP\CA2\BULLETMAZE\BULLETMAZE\BULLETMAZE\PROJECTILE.CPP
^E:\MPDP\CA2\BULLETMAZE\BULLETMAZE\BULLETMAZE\SCENENODE.CPP
/c /I"C:\SFML-2.3.2\INCLUDE" /ZI /nologo /W3 /WX- /diagnostics:classic /sdl /Od /Oy- /D _MBCS /Gm /EHsc /RTC1 /MDd /GS /fp:precise /permissive- /Zc:wchar_t /Zc:forScope /Zc:inline /Fo"DEBUG\\" /Fd"DEBUG\VC141.PDB" /Gd /TP /analyze- E:\MPDP\CA2\BULLETMAZE\BULLETMAZE\BULLETMAZE\SCENENODE.CPP
^E:\MPDP\CA2\BULLETMAZE\BULLETMAZE\BULLETMAZE\SETTINGSSTATE.CPP
/c /I"C:\SFML-2.3.2\INCLUDE" /ZI /nologo /W3 /WX- /diagnostics:classic /sdl /Od /Oy- /D _MBCS /Gm /EHsc /RTC1 /MDd /GS /fp:precise /permissive- /Zc:wchar_t /Zc:forScope /Zc:inline /Fo"DEBUG\\" /Fd"DEBUG\VC141.PDB" /Gd /TP /analyze- E:\MPDP\CA2\BULLETMAZE\BULLETMAZE\BULLETMAZE\SETTINGSSTATE.CPP
^E:\MPDP\CA2\BULLETMAZE\BULLETMAZE\BULLETMAZE\SOUNDNODE.CPP
/c /I"C:\SFML-2.3.2\INCLUDE" /ZI /nologo /W3 /WX- /diagnostics:classic /sdl /Od /Oy- /D _MBCS /Gm /EHsc /RTC1 /MDd /GS /fp:precise /permissive- /Zc:wchar_t /Zc:forScope /Zc:inline /Fo"DEBUG\\" /Fd"DEBUG\VC141.PDB" /Gd /TP /analyze- E:\MPDP\CA2\BULLETMAZE\BULLETMAZE\BULLETMAZE\SOUNDNODE.CPP
^E:\MPDP\CA2\BULLETMAZE\BULLETMAZE\BULLETMAZE\SOUNDPLAYER.CPP
/c /I"C:\SFML-2.3.2\INCLUDE" /ZI /nologo /W3 /WX- /diagnostics:classic /sdl /Od /Oy- /D _MBCS /Gm /EHsc /RTC1 /MDd /GS /fp:precise /permissive- /Zc:wchar_t /Zc:forScope /Zc:inline /Fo"DEBUG\\" /Fd"DEBUG\VC141.PDB" /Gd /TP /analyze- E:\MPDP\CA2\BULLETMAZE\BULLETMAZE\BULLETMAZE\SOUNDPLAYER.CPP
^E:\MPDP\CA2\BULLETMAZE\BULLETMAZE\BULLETMAZE\SPRITENODE.CPP
/c /I"C:\SFML-2.3.2\INCLUDE" /ZI /nologo /W3 /WX- /diagnostics:classic /sdl /Od /Oy- /D _MBCS /Gm /EHsc /RTC1 /MDd /GS /fp:precise /permissive- /Zc:wchar_t /Zc:forScope /Zc:inline /Fo"DEBUG\\" /Fd"DEBUG\VC141.PDB" /Gd /TP /analyze- E:\MPDP\CA2\BULLETMAZE\BULLETMAZE\BULLETMAZE\SPRITENODE.CPP
^E:\MPDP\CA2\BULLETMAZE\BULLETMAZE\BULLETMAZE\STATE.CPP
/c /I"C:\SFML-2.3.2\INCLUDE" /ZI /nologo /W3 /WX- /diagnostics:classic /sdl /Od /Oy- /D _MBCS /Gm /EHsc /RTC1 /MDd /GS /fp:precise /permissive- /Zc:wchar_t /Zc:forScope /Zc:inline /Fo"DEBUG\\" /Fd"DEBUG\VC141.PDB" /Gd /TP /analyze- E:\MPDP\CA2\BULLETMAZE\BULLETMAZE\BULLETMAZE\STATE.CPP
^E:\MPDP\CA2\BULLETMAZE\BULLETMAZE\BULLETMAZE\STATESTACK.CPP
/c /I"C:\SFML-2.3.2\INCLUDE" /ZI /nologo /W3 /WX- /diagnostics:classic /sdl /Od /Oy- /D _MBCS /Gm /EHsc /RTC1 /MDd /GS /fp:precise /permissive- /Zc:wchar_t /Zc:forScope /Zc:inline /Fo"DEBUG\\" /Fd"DEBUG\VC141.PDB" /Gd /TP /analyze- E:\MPDP\CA2\BULLETMAZE\BULLETMAZE\BULLETMAZE\STATESTACK.CPP
^E:\MPDP\CA2\BULLETMAZE\BULLETMAZE\BULLETMAZE\TEXTNODE.CPP
/c /I"C:\SFML-2.3.2\INCLUDE" /ZI /nologo /W3 /WX- /diagnostics:classic /sdl /Od /Oy- /D _MBCS /Gm /EHsc /RTC1 /MDd /GS /fp:precise /permissive- /Zc:wchar_t /Zc:forScope /Zc:inline /Fo"DEBUG\\" /Fd"DEBUG\VC141.PDB" /Gd /TP /analyze- E:\MPDP\CA2\BULLETMAZE\BULLETMAZE\BULLETMAZE\TEXTNODE.CPP
^E:\MPDP\CA2\BULLETMAZE\BULLETMAZE\BULLETMAZE\TITLESTATE.CPP
/c /I"C:\SFML-2.3.2\INCLUDE" /ZI /nologo /W3 /WX- /diagnostics:classic /sdl /Od /Oy- /D _MBCS /Gm /EHsc /RTC1 /MDd /GS /fp:precise /permissive- /Zc:wchar_t /Zc:forScope /Zc:inline /Fo"DEBUG\\" /Fd"DEBUG\VC141.PDB" /Gd /TP /analyze- E:\MPDP\CA2\BULLETMAZE\BULLETMAZE\BULLETMAZE\TITLESTATE.CPP
^E:\MPDP\CA2\BULLETMAZE\BULLETMAZE\BULLETMAZE\UTILITY.CPP
/c /I"C:\SFML-2.3.2\INCLUDE" /ZI /nologo /W3 /WX- /diagnostics:classic /sdl /Od /Oy- /D _MBCS /Gm /EHsc /RTC1 /MDd /GS /fp:precise /permissive- /Zc:wchar_t /Zc:forScope /Zc:inline /Fo"DEBUG\\" /Fd"DEBUG\VC141.PDB" /Gd /TP /analyze- E:\MPDP\CA2\BULLETMAZE\BULLETMAZE\BULLETMAZE\UTILITY.CPP
^E:\MPDP\CA2\BULLETMAZE\BULLETMAZE\BULLETMAZE\WORLD.CPP
/c /I"C:\SFML-2.3.2\INCLUDE" /ZI /nologo /W3 /WX- /diagnostics:classic /sdl /Od /Oy- /D _MBCS /Gm /EHsc /RTC1 /MDd /GS /fp:precise /permissive- /Zc:wchar_t /Zc:forScope /Zc:inline /Fo"DEBUG\\" /Fd"DEBUG\VC141.PDB" /Gd /TP /analyze- E:\MPDP\CA2\BULLETMAZE\BULLETMAZE\BULLETMAZE\WORLD.CPP
^F:\MPDP\CA2\BULLETMAZE\BULLETMAZE\BULLETMAZE\AIRCRAFT.CPP
/c /I"C:\SFML-2.3.2\INCLUDE" /ZI /nologo /W3 /WX- /diagnostics:classic /sdl /Od /Oy- /D _MBCS /Gm /EHsc /RTC1 /MDd /GS /fp:precise /Zc:wchar_t /Zc:forScope /Zc:inline /Fo"DEBUG\\" /Fd"DEBUG\VC141.PDB" /Gd /TP /analyze- F:\MPDP\CA2\BULLETMAZE\BULLETMAZE\BULLETMAZE\AIRCRAFT.CPP
^F:\MPDP\CA2\BULLETMAZE\BULLETMAZE\BULLETMAZE\ANIMATION.CPP
/c /I"C:\SFML-2.3.2\INCLUDE" /ZI /nologo /W3 /WX- /diagnostics:classic /sdl /Od /Oy- /D _MBCS /Gm /EHsc /RTC1 /MDd /GS /fp:precise /Zc:wchar_t /Zc:forScope /Zc:inline /Fo"DEBUG\\" /Fd"DEBUG\VC141.PDB" /Gd /TP /analyze- F:\MPDP\CA2\BULLETMAZE\BULLETMAZE\BULLETMAZE\ANIMATION.CPP
^F:\MPDP\CA2\BULLETMAZE\BULLETMAZE\BULLETMAZE\APPLICATION.CPP
/c /I"C:\SFML-2.3.2\INCLUDE" /ZI /nologo /W3 /WX- /diagnostics:classic /sdl /Od /Oy- /D _MBCS /Gm /EHsc /RTC1 /MDd /GS /fp:precise /Zc:wchar_t /Zc:forScope /Zc:inline /Fo"DEBUG\\" /Fd"DEBUG\VC141.PDB" /Gd /TP /analyze- F:\MPDP\CA2\BULLETMAZE\BULLETMAZE\BULLETMAZE\APPLICATION.CPP
^F:\MPDP\CA2\BULLETMAZE\BULLETMAZE\BULLETMAZE\BLOOMEFFECT.CPP
/c /I"C:\SFML-2.3.2\INCLUDE" /ZI /nologo /W3 /WX- /diagnostics:classic /sdl /Od /Oy- /D _MBCS /Gm /EHsc /RTC1 /MDd /GS /fp:precise /Zc:wchar_t /Zc:forScope /Zc:inline /Fo"DEBUG\\" /Fd"DEBUG\VC141.PDB" /Gd /TP /analyze- F:\MPDP\CA2\BULLETMAZE\BULLETMAZE\BULLETMAZE\BLOOMEFFECT.CPP
^F:\MPDP\CA2\BULLETMAZE\BULLETMAZE\BULLETMAZE\BUTTON.CPP
/c /I"C:\SFML-2.3.2\INCLUDE" /ZI /nologo /W3 /WX- /diagnostics:classic /sdl /Od /Oy- /D _MBCS /Gm /EHsc /RTC1 /MDd /GS /fp:precise /Zc:wchar_t /Zc:forScope /Zc:inline /Fo"DEBUG\\" /Fd"DEBUG\VC141.PDB" /Gd /TP /analyze- F:\MPDP\CA2\BULLETMAZE\BULLETMAZE\BULLETMAZE\BUTTON.CPP
^F:\MPDP\CA2\BULLETMAZE\BULLETMAZE\BULLETMAZE\COMMAND.CPP
/c /I"C:\SFML-2.3.2\INCLUDE" /ZI /nologo /W3 /WX- /diagnostics:classic /sdl /Od /Oy- /D _MBCS /Gm /EHsc /RTC1 /MDd /GS /fp:precise /Zc:wchar_t /Zc:forScope /Zc:inline /Fo"DEBUG\\" /Fd"DEBUG\VC141.PDB" /Gd /TP /analyze- F:\MPDP\CA2\BULLETMAZE\BULLETMAZE\BULLETMAZE\COMMAND.CPP
^F:\MPDP\CA2\BULLETMAZE\BULLETMAZE\BULLETMAZE\COMMANDQUEUE.CPP
/c /I"C:\SFML-2.3.2\INCLUDE" /ZI /nologo /W3 /WX- /diagnostics:classic /sdl /Od /Oy- /D _MBCS /Gm /EHsc /RTC1 /MDd /GS /fp:precise /Zc:wchar_t /Zc:forScope /Zc:inline /Fo"DEBUG\\" /Fd"DEBUG\VC141.PDB" /Gd /TP /analyze- F:\MPDP\CA2\BULLETMAZE\BULLETMAZE\BULLETMAZE\COMMANDQUEUE.CPP
^F:\MPDP\CA2\BULLETMAZE\BULLETMAZE\BULLETMAZE\COMPONENT.CPP
/c /I"C:\SFML-2.3.2\INCLUDE" /ZI /nologo /W3 /WX- /diagnostics:classic /sdl /Od /Oy- /D _MBCS /Gm /EHsc /RTC1 /MDd /GS /fp:precise /Zc:wchar_t /Zc:forScope /Zc:inline /Fo"DEBUG\\" /Fd"DEBUG\VC141.PDB" /Gd /TP /analyze- F:\MPDP\CA2\BULLETMAZE\BULLETMAZE\BULLETMAZE\COMPONENT.CPP
^F:\MPDP\CA2\BULLETMAZE\BULLETMAZE\BULLETMAZE\CONTAINER.CPP
/c /I"C:\SFML-2.3.2\INCLUDE" /ZI /nologo /W3 /WX- /diagnostics:classic /sdl /Od /Oy- /D _MBCS /Gm /EHsc /RTC1 /MDd /GS /fp:precise /Zc:wchar_t /Zc:forScope /Zc:inline /Fo"DEBUG\\" /Fd"DEBUG\VC141.PDB" /Gd /TP /analyze- F:\MPDP\CA2\BULLETMAZE\BULLETMAZE\BULLETMAZE\CONTAINER.CPP
^F:\MPDP\CA2\BULLETMAZE\BULLETMAZE\BULLETMAZE\DATATABLES.CPP
/c /I"C:\SFML-2.3.2\INCLUDE" /ZI /nologo /W3 /WX- /diagnostics:classic /sdl /Od /Oy- /D _MBCS /Gm /EHsc /RTC1 /MDd /GS /fp:precise /Zc:wchar_t /Zc:forScope /Zc:inline /Fo"DEBUG\\" /Fd"DEBUG\VC141.PDB" /Gd /TP /analyze- F:\MPDP\CA2\BULLETMAZE\BULLETMAZE\BULLETMAZE\DATATABLES.CPP
^F:\MPDP\CA2\BULLETMAZE\BULLETMAZE\BULLETMAZE\EMITTERNODE.CPP
/c /I"C:\SFML-2.3.2\INCLUDE" /ZI /nologo /W3 /WX- /diagnostics:classic /sdl /Od /Oy- /D _MBCS /Gm /EHsc /RTC1 /MDd /GS /fp:precise /Zc:wchar_t /Zc:forScope /Zc:inline /Fo"DEBUG\\" /Fd"DEBUG\VC141.PDB" /Gd /TP /analyze- F:\MPDP\CA2\BULLETMAZE\BULLETMAZE\BULLETMAZE\EMITTERNODE.CPP
^F:\MPDP\CA2\BULLETMAZE\BULLETMAZE\BULLETMAZE\ENTITY.CPP
/c /I"C:\SFML-2.3.2\INCLUDE" /ZI /nologo /W3 /WX- /diagnostics:classic /sdl /Od /Oy- /D _MBCS /Gm /EHsc /RTC1 /MDd /GS /fp:precise /Zc:wchar_t /Zc:forScope /Zc:inline /Fo"DEBUG\\" /Fd"DEBUG\VC141.PDB" /Gd /TP /analyze- F:\MPDP\CA2\BULLETMAZE\BULLETMAZE\BULLETMAZE\ENTITY.CPP
^F:\MPDP\CA2\BULLETMAZE\BULLETMAZE\BULLETMAZE\GAMEOVERSTATE.CPP
/c /I"C:\SFML-2.3.2\INCLUDE" /ZI /nologo /W3 /WX- /diagnostics:classic /sdl /Od /Oy- /D _MBCS /Gm /EHsc /RTC1 /MDd /GS /fp:precise /Zc:wchar_t /Zc:forScope /Zc:inline /Fo"DEBUG\\" /Fd"DEBUG\VC141.PDB" /Gd /TP /analyze- F:\MPDP\CA2\BULLETMAZE\BULLETMAZE\BULLETMAZE\GAMEOVERSTATE.CPP
^F:\MPDP\CA2\BULLETMAZE\BULLETMAZE\BULLETMAZE\GAMESERVER.CPP
/c /I"C:\SFML-2.3.2\INCLUDE" /ZI /nologo /W3 /WX- /diagnostics:classic /sdl /Od /Oy- /D _MBCS /Gm /EHsc /RTC1 /MDd /GS /fp:precise /Zc:wchar_t /Zc:forScope /Zc:inline /Fo"DEBUG\\" /Fd"DEBUG\VC141.PDB" /Gd /TP /analyze- F:\MPDP\CA2\BULLETMAZE\BULLETMAZE\BULLETMAZE\GAMESERVER.CPP
^F:\MPDP\CA2\BULLETMAZE\BULLETMAZE\BULLETMAZE\GAMESTATE.CPP
/c /I"C:\SFML-2.3.2\INCLUDE" /ZI /nologo /W3 /WX- /diagnostics:classic /sdl /Od /Oy- /D _MBCS /Gm /EHsc /RTC1 /MDd /GS /fp:precise /Zc:wchar_t /Zc:forScope /Zc:inline /Fo"DEBUG\\" /Fd"DEBUG\VC141.PDB" /Gd /TP /analyze- F:\MPDP\CA2\BULLETMAZE\BULLETMAZE\BULLETMAZE\GAMESTATE.CPP
^F:\MPDP\CA2\BULLETMAZE\BULLETMAZE\BULLETMAZE\KEYBINDING.CPP
/c /I"C:\SFML-2.3.2\INCLUDE" /ZI /nologo /W3 /WX- /diagnostics:classic /sdl /Od /Oy- /D _MBCS /Gm /EHsc /RTC1 /MDd /GS /fp:precise /Zc:wchar_t /Zc:forScope /Zc:inline /Fo"DEBUG\\" /Fd"DEBUG\VC141.PDB" /Gd /TP /analyze- F:\MPDP\CA2\BULLETMAZE\BULLETMAZE\BULLETMAZE\KEYBINDING.CPP
^F:\MPDP\CA2\BULLETMAZE\BULLETMAZE\BULLETMAZE\LABEL.CPP
/c /I"C:\SFML-2.3.2\INCLUDE" /ZI /nologo /W3 /WX- /diagnostics:classic /sdl /Od /Oy- /D _MBCS /Gm /EHsc /RTC1 /MDd /GS /fp:precise /Zc:wchar_t /Zc:forScope /Zc:inline /Fo"DEBUG\\" /Fd"DEBUG\VC141.PDB" /Gd /TP /analyze- F:\MPDP\CA2\BULLETMAZE\BULLETMAZE\BULLETMAZE\LABEL.CPP
^F:\MPDP\CA2\BULLETMAZE\BULLETMAZE\BULLETMAZE\MAIN.CPP
/c /I"C:\SFML-2.3.2\INCLUDE" /ZI /nologo /W3 /WX- /diagnostics:classic /sdl /Od /Oy- /D _MBCS /Gm /EHsc /RTC1 /MDd /GS /fp:precise /Zc:wchar_t /Zc:forScope /Zc:inline /Fo"DEBUG\\" /Fd"DEBUG\VC141.PDB" /Gd /TP /analyze- F:\MPDP\CA2\BULLETMAZE\BULLETMAZE\BULLETMAZE\MAIN.CPP
^F:\MPDP\CA2\BULLETMAZE\BULLETMAZE\BULLETMAZE\MENUSTATE.CPP
/c /I"C:\SFML-2.3.2\INCLUDE" /ZI /nologo /W3 /WX- /diagnostics:classic /sdl /Od /Oy- /D _MBCS /Gm /EHsc /RTC1 /MDd /GS /fp:precise /Zc:wchar_t /Zc:forScope /Zc:inline /Fo"DEBUG\\" /Fd"DEBUG\VC141.PDB" /Gd /TP /analyze- F:\MPDP\CA2\BULLETMAZE\BULLETMAZE\BULLETMAZE\MENUSTATE.CPP
^F:\MPDP\CA2\BULLETMAZE\BULLETMAZE\BULLETMAZE\MULTIPLAYERGAMESTATE.CPP
/c /I"C:\SFML-2.3.2\INCLUDE" /ZI /nologo /W3 /WX- /diagnostics:classic /sdl /Od /Oy- /D _MBCS /Gm /EHsc /RTC1 /MDd /GS /fp:precise /Zc:wchar_t /Zc:forScope /Zc:inline /Fo"DEBUG\\" /Fd"DEBUG\VC141.PDB" /Gd /TP /analyze- F:\MPDP\CA2\BULLETMAZE\BULLETMAZE\BULLETMAZE\MULTIPLAYERGAMESTATE.CPP
^F:\MPDP\CA2\BULLETMAZE\BULLETMAZE\BULLETMAZE\MUSICPLAYER.CPP
/c /I"C:\SFML-2.3.2\INCLUDE" /ZI /nologo /W3 /WX- /diagnostics:classic /sdl /Od /Oy- /D _MBCS /Gm /EHsc /RTC1 /MDd /GS /fp:precise /Zc:wchar_t /Zc:forScope /Zc:inline /Fo"DEBUG\\" /Fd"DEBUG\VC141.PDB" /Gd /TP /analyze- F:\MPDP\CA2\BULLETMAZE\BULLETMAZE\BULLETMAZE\MUSICPLAYER.CPP
^F:\MPDP\CA2\BULLETMAZE\BULLETMAZE\BULLETMAZE\NETWORKNODE.CPP
/c /I"C:\SFML-2.3.2\INCLUDE" /ZI /nologo /W3 /WX- /diagnostics:classic /sdl /Od /Oy- /D _MBCS /Gm /EHsc /RTC1 /MDd /GS /fp:precise /Zc:wchar_t /Zc:forScope /Zc:inline /Fo"DEBUG\\" /Fd"DEBUG\VC141.PDB" /Gd /TP /analyze- F:\MPDP\CA2\BULLETMAZE\BULLETMAZE\BULLETMAZE\NETWORKNODE.CPP
^F:\MPDP\CA2\BULLETMAZE\BULLETMAZE\BULLETMAZE\PARTICLENODE.CPP
/c /I"C:\SFML-2.3.2\INCLUDE" /ZI /nologo /W3 /WX- /diagnostics:classic /sdl /Od /Oy- /D _MBCS /Gm /EHsc /RTC1 /MDd /GS /fp:precise /Zc:wchar_t /Zc:forScope /Zc:inline /Fo"DEBUG\\" /Fd"DEBUG\VC141.PDB" /Gd /TP /analyze- F:\MPDP\CA2\BULLETMAZE\BULLETMAZE\BULLETMAZE\PARTICLENODE.CPP
^F:\MPDP\CA2\BULLETMAZE\BULLETMAZE\BULLETMAZE\PAUSESTATE.CPP
/c /I"C:\SFML-2.3.2\INCLUDE" /ZI /nologo /W3 /WX- /diagnostics:classic /sdl /Od /Oy- /D _MBCS /Gm /EHsc /RTC1 /MDd /GS /fp:precise /Zc:wchar_t /Zc:forScope /Zc:inline /Fo"DEBUG\\" /Fd"DEBUG\VC141.PDB" /Gd /TP /analyze- F:\MPDP\CA2\BULLETMAZE\BULLETMAZE\BULLETMAZE\PAUSESTATE.CPP
^F:\MPDP\CA2\BULLETMAZE\BULLETMAZE\BULLETMAZE\PICKUP.CPP
/c /I"C:\SFML-2.3.2\INCLUDE" /ZI /nologo /W3 /WX- /diagnostics:classic /sdl /Od /Oy- /D _MBCS /Gm /EHsc /RTC1 /MDd /GS /fp:precise /Zc:wchar_t /Zc:forScope /Zc:inline /Fo"DEBUG\\" /Fd"DEBUG\VC141.PDB" /Gd /TP /analyze- F:\MPDP\CA2\BULLETMAZE\BULLETMAZE\BULLETMAZE\PICKUP.CPP
^F:\MPDP\CA2\BULLETMAZE\BULLETMAZE\BULLETMAZE\PLAYER.CPP
/c /I"C:\SFML-2.3.2\INCLUDE" /ZI /nologo /W3 /WX- /diagnostics:classic /sdl /Od /Oy- /D _MBCS /Gm /EHsc /RTC1 /MDd /GS /fp:precise /Zc:wchar_t /Zc:forScope /Zc:inline /Fo"DEBUG\\" /Fd"DEBUG\VC141.PDB" /Gd /TP /analyze- F:\MPDP\CA2\BULLETMAZE\BULLETMAZE\BULLETMAZE\PLAYER.CPP
^F:\MPDP\CA2\BULLETMAZE\BULLETMAZE\BULLETMAZE\POSTEFFECT.CPP
/c /I"C:\SFML-2.3.2\INCLUDE" /ZI /nologo /W3 /WX- /diagnostics:classic /sdl /Od /Oy- /D _MBCS /Gm /EHsc /RTC1 /MDd /GS /fp:precise /Zc:wchar_t /Zc:forScope /Zc:inline /Fo"DEBUG\\" /Fd"DEBUG\VC141.PDB" /Gd /TP /analyze- F:\MPDP\CA2\BULLETMAZE\BULLETMAZE\BULLETMAZE\POSTEFFECT.CPP
^F:\MPDP\CA2\BULLETMAZE\BULLETMAZE\BULLETMAZE\PROJECTILE.CPP
/c /I"C:\SFML-2.3.2\INCLUDE" /ZI /nologo /W3 /WX- /diagnostics:classic /sdl /Od /Oy- /D _MBCS /Gm /EHsc /RTC1 /MDd /GS /fp:precise /Zc:wchar_t /Zc:forScope /Zc:inline /Fo"DEBUG\\" /Fd"DEBUG\VC141.PDB" /Gd /TP /analyze- F:\MPDP\CA2\BULLETMAZE\BULLETMAZE\BULLETMAZE\PROJECTILE.CPP
^F:\MPDP\CA2\BULLETMAZE\BULLETMAZE\BULLETMAZE\SCENENODE.CPP
/c /I"C:\SFML-2.3.2\INCLUDE" /ZI /nologo /W3 /WX- /diagnostics:classic /sdl /Od /Oy- /D _MBCS /Gm /EHsc /RTC1 /MDd /GS /fp:precise /Zc:wchar_t /Zc:forScope /Zc:inline /Fo"DEBUG\\" /Fd"DEBUG\VC141.PDB" /Gd /TP /analyze- F:\MPDP\CA2\BULLETMAZE\BULLETMAZE\BULLETMAZE\SCENENODE.CPP
^F:\MPDP\CA2\BULLETMAZE\BULLETMAZE\BULLETMAZE\SETTINGSSTATE.CPP
/c /I"C:\SFML-2.3.2\INCLUDE" /ZI /nologo /W3 /WX- /diagnostics:classic /sdl /Od /Oy- /D _MBCS /Gm /EHsc /RTC1 /MDd /GS /fp:precise /Zc:wchar_t /Zc:forScope /Zc:inline /Fo"DEBUG\\" /Fd"DEBUG\VC141.PDB" /Gd /TP /analyze- F:\MPDP\CA2\BULLETMAZE\BULLETMAZE\BULLETMAZE\SETTINGSSTATE.CPP
^F:\MPDP\CA2\BULLETMAZE\BULLETMAZE\BULLETMAZE\SOUNDNODE.CPP
/c /I"C:\SFML-2.3.2\INCLUDE" /ZI /nologo /W3 /WX- /diagnostics:classic /sdl /Od /Oy- /D _MBCS /Gm /EHsc /RTC1 /MDd /GS /fp:precise /Zc:wchar_t /Zc:forScope /Zc:inline /Fo"DEBUG\\" /Fd"DEBUG\VC141.PDB" /Gd /TP /analyze- F:\MPDP\CA2\BULLETMAZE\BULLETMAZE\BULLETMAZE\SOUNDNODE.CPP
^F:\MPDP\CA2\BULLETMAZE\BULLETMAZE\BULLETMAZE\SOUNDPLAYER.CPP
/c /I"C:\SFML-2.3.2\INCLUDE" /ZI /nologo /W3 /WX- /diagnostics:classic /sdl /Od /Oy- /D _MBCS /Gm /EHsc /RTC1 /MDd /GS /fp:precise /Zc:wchar_t /Zc:forScope /Zc:inline /Fo"DEBUG\\" /Fd"DEBUG\VC141.PDB" /Gd /TP /analyze- F:\MPDP\CA2\BULLETMAZE\BULLETMAZE\BULLETMAZE\SOUNDPLAYER.CPP
^F:\MPDP\CA2\BULLETMAZE\BULLETMAZE\BULLETMAZE\SPRITENODE.CPP
/c /I"C:\SFML-2.3.2\INCLUDE" /ZI /nologo /W3 /WX- /diagnostics:classic /sdl /Od /Oy- /D _MBCS /Gm /EHsc /RTC1 /MDd /GS /fp:precise /Zc:wchar_t /Zc:forScope /Zc:inline /Fo"DEBUG\\" /Fd"DEBUG\VC141.PDB" /Gd /TP /analyze- F:\MPDP\CA2\BULLETMAZE\BULLETMAZE\BULLETMAZE\SPRITENODE.CPP
^F:\MPDP\CA2\BULLETMAZE\BULLETMAZE\BULLETMAZE\STATE.CPP
/c /I"C:\SFML-2.3.2\INCLUDE" /ZI /nologo /W3 /WX- /diagnostics:classic /sdl /Od /Oy- /D _MBCS /Gm /EHsc /RTC1 /MDd /GS /fp:precise /Zc:wchar_t /Zc:forScope /Zc:inline /Fo"DEBUG\\" /Fd"DEBUG\VC141.PDB" /Gd /TP /analyze- F:\MPDP\CA2\BULLETMAZE\BULLETMAZE\BULLETMAZE\STATE.CPP
^F:\MPDP\CA2\BULLETMAZE\BULLETMAZE\BULLETMAZE\STATESTACK.CPP
/c /I"C:\SFML-2.3.2\INCLUDE" /ZI /nologo /W3 /WX- /diagnostics:classic /sdl /Od /Oy- /D _MBCS /Gm /EHsc /RTC1 /MDd /GS /fp:precise /Zc:wchar_t /Zc:forScope /Zc:inline /Fo"DEBUG\\" /Fd"DEBUG\VC141.PDB" /Gd /TP /analyze- F:\MPDP\CA2\BULLETMAZE\BULLETMAZE\BULLETMAZE\STATESTACK.CPP
^F:\MPDP\CA2\BULLETMAZE\BULLETMAZE\BULLETMAZE\TEXTNODE.CPP
/c /I"C:\SFML-2.3.2\INCLUDE" /ZI /nologo /W3 /WX- /diagnostics:classic /sdl /Od /Oy- /D _MBCS /Gm /EHsc /RTC1 /MDd /GS /fp:precise /Zc:wchar_t /Zc:forScope /Zc:inline /Fo"DEBUG\\" /Fd"DEBUG\VC141.PDB" /Gd /TP /analyze- F:\MPDP\CA2\BULLETMAZE\BULLETMAZE\BULLETMAZE\TEXTNODE.CPP
^F:\MPDP\CA2\BULLETMAZE\BULLETMAZE\BULLETMAZE\TITLESTATE.CPP
/c /I"C:\SFML-2.3.2\INCLUDE" /ZI /nologo /W3 /WX- /diagnostics:classic /sdl /Od /Oy- /D _MBCS /Gm /EHsc /RTC1 /MDd /GS /fp:precise /Zc:wchar_t /Zc:forScope /Zc:inline /Fo"DEBUG\\" /Fd"DEBUG\VC141.PDB" /Gd /TP /analyze- F:\MPDP\CA2\BULLETMAZE\BULLETMAZE\BULLETMAZE\TITLESTATE.CPP
^F:\MPDP\CA2\BULLETMAZE\BULLETMAZE\BULLETMAZE\UTILITY.CPP
/c /I"C:\SFML-2.3.2\INCLUDE" /ZI /nologo /W3 /WX- /diagnostics:classic /sdl /Od /Oy- /D _MBCS /Gm /EHsc /RTC1 /MDd /GS /fp:precise /Zc:wchar_t /Zc:forScope /Zc:inline /Fo"DEBUG\\" /Fd"DEBUG\VC141.PDB" /Gd /TP /analyze- F:\MPDP\CA2\BULLETMAZE\BULLETMAZE\BULLETMAZE\UTILITY.CPP
^F:\MPDP\CA2\BULLETMAZE\BULLETMAZE\BULLETMAZE\WORLD.CPP
/c /I"C:\SFML-2.3.2\INCLUDE" /ZI /nologo /W3 /WX- /diagnostics:classic /sdl /Od /Oy- /D _MBCS /Gm /EHsc /RTC1 /MDd /GS /fp:precise /Zc:wchar_t /Zc:forScope /Zc:inline /Fo"DEBUG\\" /Fd"DEBUG\VC141.PDB" /Gd /TP /analyze- F:\MPDP\CA2\BULLETMAZE\BULLETMAZE\BULLETMAZE\WORLD.CPP
