^C:\USERS\PUDDING\DESKTOP\CA2BAD\CA2_CLEAN\BULLETMAZE\BULLETMAZE\AIRCRAFT.CPP|C:\USERS\PUDDING\DESKTOP\CA2BAD\CA2_CLEAN\BULLETMAZE\BULLETMAZE\ANIMATION.CPP|C:\USERS\PUDDING\DESKTOP\CA2BAD\CA2_CLEAN\BULLETMAZE\BULLETMAZE\APPLICATION.CPP|C:\USERS\PUDDING\DESKTOP\CA2BAD\CA2_CLEAN\BULLETMAZE\BULLETMAZE\BLOOMEFFECT.CPP|C:\USERS\PUDDING\DESKTOP\CA2BAD\CA2_CLEAN\BULLETMAZE\BULLETMAZE\BUTTON.CPP|C:\USERS\PUDDING\DESKTOP\CA2BAD\CA2_CLEAN\BULLETMAZE\BULLETMAZE\COMMAND.CPP|C:\USERS\PUDDING\DESKTOP\CA2BAD\CA2_CLEAN\BULLETMAZE\BULLETMAZE\COMMANDQUEUE.CPP|C:\USERS\PUDDING\DESKTOP\CA2BAD\CA2_CLEAN\BULLETMAZE\BULLETMAZE\COMPONENT.CPP|C:\USERS\PUDDING\DESKTOP\CA2BAD\CA2_CLEAN\BULLETMAZE\BULLETMAZE\CONTAINER.CPP|C:\USERS\PUDDING\DESKTOP\CA2BAD\CA2_CLEAN\BULLETMAZE\BULLETMAZE\DATATABLES.CPP|C:\USERS\PUDDING\DESKTOP\CA2BAD\CA2_CLEAN\BULLETMAZE\BULLETMAZE\EMITTERNODE.CPP|C:\USERS\PUDDING\DESKTOP\CA2BAD\CA2_CLEAN\BULLETMAZE\BULLETMAZE\ENTITY.CPP|C:\USERS\PUDDING\DESKTOP\CA2BAD\CA2_CLEAN\BULLETMAZE\BULLETMAZE\GAMEOVERSTATE.CPP|C:\USERS\PUDDING\DESKTOP\CA2BAD\CA2_CLEAN\BULLETMAZE\BULLETMAZE\GAMESERVER.CPP|C:\USERS\PUDDING\DESKTOP\CA2BAD\CA2_CLEAN\BULLETMAZE\BULLETMAZE\GAMESTATE.CPP|C:\USERS\PUDDING\DESKTOP\CA2BAD\CA2_CLEAN\BULLETMAZE\BULLETMAZE\KEYBINDING.CPP|C:\USERS\PUDDING\DESKTOP\CA2BAD\CA2_CLEAN\BULLETMAZE\BULLETMAZE\LABEL.CPP|C:\USERS\PUDDING\DESKTOP\CA2BAD\CA2_CLEAN\BULLETMAZE\BULLETMAZE\MAIN.CPP|C:\USERS\PUDDING\DESKTOP\CA2BAD\CA2_CLEAN\BULLETMAZE\BULLETMAZE\MENUSTATE.CPP|C:\USERS\PUDDING\DESKTOP\CA2BAD\CA2_CLEAN\BULLETMAZE\BULLETMAZE\MULTIPLAYERGAMESTATE.CPP|C:\USERS\PUDDING\DESKTOP\CA2BAD\CA2_CLEAN\BULLETMAZE\BULLETMAZE\MUSICPLAYER.CPP|C:\USERS\PUDDING\DESKTOP\CA2BAD\CA2_CLEAN\BULLETMAZE\BULLETMAZE\NETWORKNODE.CPP|C:\USERS\PUDDING\DESKTOP\CA2BAD\CA2_CLEAN\BULLETMAZE\BULLETMAZE\PARTICLENODE.CPP|C:\USERS\PUDDING\DESKTOP\CA2BAD\CA2_CLEAN\BULLETMAZE\BULLETMAZE\PAUSESTATE.CPP|C:\USERS\PUDDING\DESKTOP\CA2BAD\CA2_CLEAN\BULLETMAZE\BULLETMAZE\PICKUP.CPP|C:\USERS\PUDDING\DESKTOP\CA2BAD\CA2_CLEAN\BULLETMAZE\BULLETMAZE\PLAYER.CPP|C:\USERS\PUDDING\DESKTOP\CA2BAD\CA2_CLEAN\BULLETMAZE\BULLETMAZE\POSTEFFECT.CPP|C:\USERS\PUDDING\DESKTOP\CA2BAD\CA2_CLEAN\BULLETMAZE\BULLETMAZE\PROJECTILE.CPP|C:\USERS\PUDDING\DESKTOP\CA2BAD\CA2_CLEAN\BULLETMAZE\BULLETMAZE\SCENENODE.CPP|C:\USERS\PUDDING\DESKTOP\CA2BAD\CA2_CLEAN\BULLETMAZE\BULLETMAZE\SETTINGSSTATE.CPP|C:\USERS\PUDDING\DESKTOP\CA2BAD\CA2_CLEAN\BULLETMAZE\BULLETMAZE\SOUNDNODE.CPP|C:\USERS\PUDDING\DESKTOP\CA2BAD\CA2_CLEAN\BULLETMAZE\BULLETMAZE\SOUNDPLAYER.CPP|C:\USERS\PUDDING\DESKTOP\CA2BAD\CA2_CLEAN\BULLETMAZE\BULLETMAZE\SPRITENODE.CPP|C:\USERS\PUDDING\DESKTOP\CA2BAD\CA2_CLEAN\BULLETMAZE\BULLETMAZE\STATE.CPP|C:\USERS\PUDDING\DESKTOP\CA2BAD\CA2_CLEAN\BULLETMAZE\BULLETMAZE\STATESTACK.CPP|C:\USERS\PUDDING\DESKTOP\CA2BAD\CA2_CLEAN\BULLETMAZE\BULLETMAZE\TEXTNODE.CPP|C:\USERS\PUDDING\DESKTOP\CA2BAD\CA2_CLEAN\BULLETMAZE\BULLETMAZE\TITLESTATE.CPP|C:\USERS\PUDDING\DESKTOP\CA2BAD\CA2_CLEAN\BULLETMAZE\BULLETMAZE\UTILITY.CPP|C:\USERS\PUDDING\DESKTOP\CA2BAD\CA2_CLEAN\BULLETMAZE\BULLETMAZE\WORLD.CPP
C:\USERS\PUDDING\DESKTOP\CA2BAD\CA2_CLEAN\BULLETMAZE\BULLETMAZE\WIN32\DEBUG\ TO WIN32\DEBUG\BULLETMAZE\VC141.PDB
C:\USERS\PUDDING\DESKTOP\CA2BAD\CA2_CLEAN\BULLETMAZE\BULLETMAZE\WIN32\DEBUG\ TO WIN32\DEBUG\BULLETMAZE\VC141.IDB
C:\USERS\PUDDING\DESKTOP\CA2BAD\CA2_CLEAN\BULLETMAZE\BULLETMAZE\WIN32\DEBUG\ TO WIN32\DEBUG\BULLETMAZE\MULTIPLAYERGAMESTATE.OBJ
C:\USERS\PUDDING\DESKTOP\CA2BAD\CA2_CLEAN\BULLETMAZE\BULLETMAZE\WIN32\DEBUG\ TO WIN32\DEBUG\BULLETMAZE\MUSICPLAYER.OBJ
C:\USERS\PUDDING\DESKTOP\CA2BAD\CA2_CLEAN\BULLETMAZE\BULLETMAZE\WIN32\DEBUG\ TO WIN32\DEBUG\BULLETMAZE\NETWORKNODE.OBJ
C:\USERS\PUDDING\DESKTOP\CA2BAD\CA2_CLEAN\BULLETMAZE\BULLETMAZE\WIN32\DEBUG\ TO WIN32\DEBUG\BULLETMAZE\PARTICLENODE.OBJ
C:\USERS\PUDDING\DESKTOP\CA2BAD\CA2_CLEAN\BULLETMAZE\BULLETMAZE\WIN32\DEBUG\ TO WIN32\DEBUG\BULLETMAZE\PAUSESTATE.OBJ
C:\USERS\PUDDING\DESKTOP\CA2BAD\CA2_CLEAN\BULLETMAZE\BULLETMAZE\WIN32\DEBUG\ TO WIN32\DEBUG\BULLETMAZE\PICKUP.OBJ
C:\USERS\PUDDING\DESKTOP\CA2BAD\CA2_CLEAN\BULLETMAZE\BULLETMAZE\WIN32\DEBUG\ TO WIN32\DEBUG\BULLETMAZE\PLAYER.OBJ
C:\USERS\PUDDING\DESKTOP\CA2BAD\CA2_CLEAN\BULLETMAZE\BULLETMAZE\WIN32\DEBUG\ TO WIN32\DEBUG\BULLETMAZE\POSTEFFECT.OBJ
C:\USERS\PUDDING\DESKTOP\CA2BAD\CA2_CLEAN\BULLETMAZE\BULLETMAZE\WIN32\DEBUG\ TO WIN32\DEBUG\BULLETMAZE\PROJECTILE.OBJ
C:\USERS\PUDDING\DESKTOP\CA2BAD\CA2_CLEAN\BULLETMAZE\BULLETMAZE\WIN32\DEBUG\ TO WIN32\DEBUG\BULLETMAZE\SCENENODE.OBJ
C:\USERS\PUDDING\DESKTOP\CA2BAD\CA2_CLEAN\BULLETMAZE\BULLETMAZE\WIN32\DEBUG\ TO WIN32\DEBUG\BULLETMAZE\SETTINGSSTATE.OBJ
C:\USERS\PUDDING\DESKTOP\CA2BAD\CA2_CLEAN\BULLETMAZE\BULLETMAZE\WIN32\DEBUG\ TO WIN32\DEBUG\BULLETMAZE\SOUNDNODE.OBJ
C:\USERS\PUDDING\DESKTOP\CA2BAD\CA2_CLEAN\BULLETMAZE\BULLETMAZE\WIN32\DEBUG\ TO WIN32\DEBUG\BULLETMAZE\SOUNDPLAYER.OBJ
C:\USERS\PUDDING\DESKTOP\CA2BAD\CA2_CLEAN\BULLETMAZE\BULLETMAZE\WIN32\DEBUG\ TO WIN32\DEBUG\BULLETMAZE\SPRITENODE.OBJ
C:\USERS\PUDDING\DESKTOP\CA2BAD\CA2_CLEAN\BULLETMAZE\BULLETMAZE\WIN32\DEBUG\ TO WIN32\DEBUG\BULLETMAZE\STATE.OBJ
C:\USERS\PUDDING\DESKTOP\CA2BAD\CA2_CLEAN\BULLETMAZE\BULLETMAZE\WIN32\DEBUG\ TO WIN32\DEBUG\BULLETMAZE\STATESTACK.OBJ
C:\USERS\PUDDING\DESKTOP\CA2BAD\CA2_CLEAN\BULLETMAZE\BULLETMAZE\WIN32\DEBUG\ TO WIN32\DEBUG\BULLETMAZE\TEXTNODE.OBJ
C:\USERS\PUDDING\DESKTOP\CA2BAD\CA2_CLEAN\BULLETMAZE\BULLETMAZE\WIN32\DEBUG\ TO WIN32\DEBUG\BULLETMAZE\TITLESTATE.OBJ
C:\USERS\PUDDING\DESKTOP\CA2BAD\CA2_CLEAN\BULLETMAZE\BULLETMAZE\WIN32\DEBUG\ TO WIN32\DEBUG\BULLETMAZE\UTILITY.OBJ
C:\USERS\PUDDING\DESKTOP\CA2BAD\CA2_CLEAN\BULLETMAZE\BULLETMAZE\WIN32\DEBUG\ TO WIN32\DEBUG\BULLETMAZE\WORLD.OBJ
C:\USERS\PUDDING\DESKTOP\CA2BAD\CA2_CLEAN\BULLETMAZE\BULLETMAZE\WIN32\DEBUG\ TO WIN32\DEBUG\BULLETMAZE\AIRCRAFT.OBJ
C:\USERS\PUDDING\DESKTOP\CA2BAD\CA2_CLEAN\BULLETMAZE\BULLETMAZE\WIN32\DEBUG\ TO WIN32\DEBUG\BULLETMAZE\ANIMATION.OBJ
C:\USERS\PUDDING\DESKTOP\CA2BAD\CA2_CLEAN\BULLETMAZE\BULLETMAZE\WIN32\DEBUG\ TO WIN32\DEBUG\BULLETMAZE\APPLICATION.OBJ
C:\USERS\PUDDING\DESKTOP\CA2BAD\CA2_CLEAN\BULLETMAZE\BULLETMAZE\WIN32\DEBUG\ TO WIN32\DEBUG\BULLETMAZE\BLOOMEFFECT.OBJ
C:\USERS\PUDDING\DESKTOP\CA2BAD\CA2_CLEAN\BULLETMAZE\BULLETMAZE\WIN32\DEBUG\ TO WIN32\DEBUG\BULLETMAZE\BUTTON.OBJ
C:\USERS\PUDDING\DESKTOP\CA2BAD\CA2_CLEAN\BULLETMAZE\BULLETMAZE\WIN32\DEBUG\ TO WIN32\DEBUG\BULLETMAZE\COMMAND.OBJ
C:\USERS\PUDDING\DESKTOP\CA2BAD\CA2_CLEAN\BULLETMAZE\BULLETMAZE\WIN32\DEBUG\ TO WIN32\DEBUG\BULLETMAZE\COMMANDQUEUE.OBJ
C:\USERS\PUDDING\DESKTOP\CA2BAD\CA2_CLEAN\BULLETMAZE\BULLETMAZE\WIN32\DEBUG\ TO WIN32\DEBUG\BULLETMAZE\COMPONENT.OBJ
C:\USERS\PUDDING\DESKTOP\CA2BAD\CA2_CLEAN\BULLETMAZE\BULLETMAZE\WIN32\DEBUG\ TO WIN32\DEBUG\BULLETMAZE\CONTAINER.OBJ
C:\USERS\PUDDING\DESKTOP\CA2BAD\CA2_CLEAN\BULLETMAZE\BULLETMAZE\WIN32\DEBUG\ TO WIN32\DEBUG\BULLETMAZE\DATATABLES.OBJ
C:\USERS\PUDDING\DESKTOP\CA2BAD\CA2_CLEAN\BULLETMAZE\BULLETMAZE\WIN32\DEBUG\ TO WIN32\DEBUG\BULLETMAZE\EMITTERNODE.OBJ
C:\USERS\PUDDING\DESKTOP\CA2BAD\CA2_CLEAN\BULLETMAZE\BULLETMAZE\WIN32\DEBUG\ TO WIN32\DEBUG\BULLETMAZE\ENTITY.OBJ
C:\USERS\PUDDING\DESKTOP\CA2BAD\CA2_CLEAN\BULLETMAZE\BULLETMAZE\WIN32\DEBUG\ TO WIN32\DEBUG\BULLETMAZE\GAMEOVERSTATE.OBJ
C:\USERS\PUDDING\DESKTOP\CA2BAD\CA2_CLEAN\BULLETMAZE\BULLETMAZE\WIN32\DEBUG\ TO WIN32\DEBUG\BULLETMAZE\GAMESERVER.OBJ
C:\USERS\PUDDING\DESKTOP\CA2BAD\CA2_CLEAN\BULLETMAZE\BULLETMAZE\WIN32\DEBUG\ TO WIN32\DEBUG\BULLETMAZE\GAMESTATE.OBJ
C:\USERS\PUDDING\DESKTOP\CA2BAD\CA2_CLEAN\BULLETMAZE\BULLETMAZE\WIN32\DEBUG\ TO WIN32\DEBUG\BULLETMAZE\KEYBINDING.OBJ
C:\USERS\PUDDING\DESKTOP\CA2BAD\CA2_CLEAN\BULLETMAZE\BULLETMAZE\WIN32\DEBUG\ TO WIN32\DEBUG\BULLETMAZE\LABEL.OBJ
C:\USERS\PUDDING\DESKTOP\CA2BAD\CA2_CLEAN\BULLETMAZE\BULLETMAZE\WIN32\DEBUG\ TO WIN32\DEBUG\BULLETMAZE\MAIN.OBJ
C:\USERS\PUDDING\DESKTOP\CA2BAD\CA2_CLEAN\BULLETMAZE\BULLETMAZE\WIN32\DEBUG\ TO WIN32\DEBUG\BULLETMAZE\MENUSTATE.OBJ
^C:\USERS\PUDDING\DESKTOP\CA2BAD\CA2_CLEAN\BULLETMAZE\BULLETMAZE\AIRCRAFT.CPP
C:\USERS\PUDDING\DESKTOP\CA2BAD\CA2_CLEAN\BULLETMAZE\BULLETMAZE\WIN32\DEBUG\ TO WIN32\DEBUG\BULLETMAZE\VC141.PDB
^C:\USERS\PUDDING\DESKTOP\CA2BAD\CA2_CLEAN\BULLETMAZE\BULLETMAZE\ANIMATION.CPP
C:\USERS\PUDDING\DESKTOP\CA2BAD\CA2_CLEAN\BULLETMAZE\BULLETMAZE\WIN32\DEBUG\ TO WIN32\DEBUG\BULLETMAZE\VC141.PDB
^C:\USERS\PUDDING\DESKTOP\CA2BAD\CA2_CLEAN\BULLETMAZE\BULLETMAZE\APPLICATION.CPP
C:\USERS\PUDDING\DESKTOP\CA2BAD\CA2_CLEAN\BULLETMAZE\BULLETMAZE\WIN32\DEBUG\ TO WIN32\DEBUG\BULLETMAZE\VC141.PDB
^C:\USERS\PUDDING\DESKTOP\CA2BAD\CA2_CLEAN\BULLETMAZE\BULLETMAZE\BLOOMEFFECT.CPP
C:\USERS\PUDDING\DESKTOP\CA2BAD\CA2_CLEAN\BULLETMAZE\BULLETMAZE\WIN32\DEBUG\ TO WIN32\DEBUG\BULLETMAZE\VC141.PDB
^C:\USERS\PUDDING\DESKTOP\CA2BAD\CA2_CLEAN\BULLETMAZE\BULLETMAZE\BUTTON.CPP
C:\USERS\PUDDING\DESKTOP\CA2BAD\CA2_CLEAN\BULLETMAZE\BULLETMAZE\WIN32\DEBUG\ TO WIN32\DEBUG\BULLETMAZE\VC141.PDB
^C:\USERS\PUDDING\DESKTOP\CA2BAD\CA2_CLEAN\BULLETMAZE\BULLETMAZE\COMMAND.CPP
C:\USERS\PUDDING\DESKTOP\CA2BAD\CA2_CLEAN\BULLETMAZE\BULLETMAZE\WIN32\DEBUG\ TO WIN32\DEBUG\BULLETMAZE\VC141.PDB
^C:\USERS\PUDDING\DESKTOP\CA2BAD\CA2_CLEAN\BULLETMAZE\BULLETMAZE\COMMANDQUEUE.CPP
C:\USERS\PUDDING\DESKTOP\CA2BAD\CA2_CLEAN\BULLETMAZE\BULLETMAZE\WIN32\DEBUG\ TO WIN32\DEBUG\BULLETMAZE\VC141.PDB
^C:\USERS\PUDDING\DESKTOP\CA2BAD\CA2_CLEAN\BULLETMAZE\BULLETMAZE\COMPONENT.CPP
C:\USERS\PUDDING\DESKTOP\CA2BAD\CA2_CLEAN\BULLETMAZE\BULLETMAZE\WIN32\DEBUG\ TO WIN32\DEBUG\BULLETMAZE\VC141.PDB
^C:\USERS\PUDDING\DESKTOP\CA2BAD\CA2_CLEAN\BULLETMAZE\BULLETMAZE\CONTAINER.CPP
C:\USERS\PUDDING\DESKTOP\CA2BAD\CA2_CLEAN\BULLETMAZE\BULLETMAZE\WIN32\DEBUG\ TO WIN32\DEBUG\BULLETMAZE\VC141.PDB
^C:\USERS\PUDDING\DESKTOP\CA2BAD\CA2_CLEAN\BULLETMAZE\BULLETMAZE\DATATABLES.CPP
C:\USERS\PUDDING\DESKTOP\CA2BAD\CA2_CLEAN\BULLETMAZE\BULLETMAZE\WIN32\DEBUG\ TO WIN32\DEBUG\BULLETMAZE\VC141.PDB
^C:\USERS\PUDDING\DESKTOP\CA2BAD\CA2_CLEAN\BULLETMAZE\BULLETMAZE\EMITTERNODE.CPP
C:\USERS\PUDDING\DESKTOP\CA2BAD\CA2_CLEAN\BULLETMAZE\BULLETMAZE\WIN32\DEBUG\ TO WIN32\DEBUG\BULLETMAZE\VC141.PDB
^C:\USERS\PUDDING\DESKTOP\CA2BAD\CA2_CLEAN\BULLETMAZE\BULLETMAZE\ENTITY.CPP
C:\USERS\PUDDING\DESKTOP\CA2BAD\CA2_CLEAN\BULLETMAZE\BULLETMAZE\WIN32\DEBUG\ TO WIN32\DEBUG\BULLETMAZE\VC141.PDB
^C:\USERS\PUDDING\DESKTOP\CA2BAD\CA2_CLEAN\BULLETMAZE\BULLETMAZE\GAMEOVERSTATE.CPP
C:\USERS\PUDDING\DESKTOP\CA2BAD\CA2_CLEAN\BULLETMAZE\BULLETMAZE\WIN32\DEBUG\ TO WIN32\DEBUG\BULLETMAZE\VC141.PDB
^C:\USERS\PUDDING\DESKTOP\CA2BAD\CA2_CLEAN\BULLETMAZE\BULLETMAZE\GAMESERVER.CPP
C:\USERS\PUDDING\DESKTOP\CA2BAD\CA2_CLEAN\BULLETMAZE\BULLETMAZE\WIN32\DEBUG\ TO WIN32\DEBUG\BULLETMAZE\VC141.PDB
^C:\USERS\PUDDING\DESKTOP\CA2BAD\CA2_CLEAN\BULLETMAZE\BULLETMAZE\GAMESTATE.CPP
C:\USERS\PUDDING\DESKTOP\CA2BAD\CA2_CLEAN\BULLETMAZE\BULLETMAZE\WIN32\DEBUG\ TO WIN32\DEBUG\BULLETMAZE\VC141.PDB
^C:\USERS\PUDDING\DESKTOP\CA2BAD\CA2_CLEAN\BULLETMAZE\BULLETMAZE\KEYBINDING.CPP
C:\USERS\PUDDING\DESKTOP\CA2BAD\CA2_CLEAN\BULLETMAZE\BULLETMAZE\WIN32\DEBUG\ TO WIN32\DEBUG\BULLETMAZE\VC141.PDB
^C:\USERS\PUDDING\DESKTOP\CA2BAD\CA2_CLEAN\BULLETMAZE\BULLETMAZE\LABEL.CPP
C:\USERS\PUDDING\DESKTOP\CA2BAD\CA2_CLEAN\BULLETMAZE\BULLETMAZE\WIN32\DEBUG\ TO WIN32\DEBUG\BULLETMAZE\VC141.PDB
^C:\USERS\PUDDING\DESKTOP\CA2BAD\CA2_CLEAN\BULLETMAZE\BULLETMAZE\MAIN.CPP
C:\USERS\PUDDING\DESKTOP\CA2BAD\CA2_CLEAN\BULLETMAZE\BULLETMAZE\WIN32\DEBUG\ TO WIN32\DEBUG\BULLETMAZE\VC141.PDB
^C:\USERS\PUDDING\DESKTOP\CA2BAD\CA2_CLEAN\BULLETMAZE\BULLETMAZE\MENUSTATE.CPP
C:\USERS\PUDDING\DESKTOP\CA2BAD\CA2_CLEAN\BULLETMAZE\BULLETMAZE\WIN32\DEBUG\ TO WIN32\DEBUG\BULLETMAZE\VC141.PDB
^C:\USERS\PUDDING\DESKTOP\CA2BAD\CA2_CLEAN\BULLETMAZE\BULLETMAZE\MULTIPLAYERGAMESTATE.CPP
C:\USERS\PUDDING\DESKTOP\CA2BAD\CA2_CLEAN\BULLETMAZE\BULLETMAZE\WIN32\DEBUG\ TO WIN32\DEBUG\BULLETMAZE\VC141.PDB
^C:\USERS\PUDDING\DESKTOP\CA2BAD\CA2_CLEAN\BULLETMAZE\BULLETMAZE\MUSICPLAYER.CPP
C:\USERS\PUDDING\DESKTOP\CA2BAD\CA2_CLEAN\BULLETMAZE\BULLETMAZE\WIN32\DEBUG\ TO WIN32\DEBUG\BULLETMAZE\VC141.PDB
^C:\USERS\PUDDING\DESKTOP\CA2BAD\CA2_CLEAN\BULLETMAZE\BULLETMAZE\NETWORKNODE.CPP
C:\USERS\PUDDING\DESKTOP\CA2BAD\CA2_CLEAN\BULLETMAZE\BULLETMAZE\WIN32\DEBUG\ TO WIN32\DEBUG\BULLETMAZE\VC141.PDB
^C:\USERS\PUDDING\DESKTOP\CA2BAD\CA2_CLEAN\BULLETMAZE\BULLETMAZE\PARTICLENODE.CPP
C:\USERS\PUDDING\DESKTOP\CA2BAD\CA2_CLEAN\BULLETMAZE\BULLETMAZE\WIN32\DEBUG\ TO WIN32\DEBUG\BULLETMAZE\VC141.PDB
^C:\USERS\PUDDING\DESKTOP\CA2BAD\CA2_CLEAN\BULLETMAZE\BULLETMAZE\PAUSESTATE.CPP
C:\USERS\PUDDING\DESKTOP\CA2BAD\CA2_CLEAN\BULLETMAZE\BULLETMAZE\WIN32\DEBUG\ TO WIN32\DEBUG\BULLETMAZE\VC141.PDB
^C:\USERS\PUDDING\DESKTOP\CA2BAD\CA2_CLEAN\BULLETMAZE\BULLETMAZE\PICKUP.CPP
C:\USERS\PUDDING\DESKTOP\CA2BAD\CA2_CLEAN\BULLETMAZE\BULLETMAZE\WIN32\DEBUG\ TO WIN32\DEBUG\BULLETMAZE\VC141.PDB
^C:\USERS\PUDDING\DESKTOP\CA2BAD\CA2_CLEAN\BULLETMAZE\BULLETMAZE\PLAYER.CPP
C:\USERS\PUDDING\DESKTOP\CA2BAD\CA2_CLEAN\BULLETMAZE\BULLETMAZE\WIN32\DEBUG\ TO WIN32\DEBUG\BULLETMAZE\VC141.PDB
^C:\USERS\PUDDING\DESKTOP\CA2BAD\CA2_CLEAN\BULLETMAZE\BULLETMAZE\POSTEFFECT.CPP
C:\USERS\PUDDING\DESKTOP\CA2BAD\CA2_CLEAN\BULLETMAZE\BULLETMAZE\WIN32\DEBUG\ TO WIN32\DEBUG\BULLETMAZE\VC141.PDB
^C:\USERS\PUDDING\DESKTOP\CA2BAD\CA2_CLEAN\BULLETMAZE\BULLETMAZE\PROJECTILE.CPP
C:\USERS\PUDDING\DESKTOP\CA2BAD\CA2_CLEAN\BULLETMAZE\BULLETMAZE\WIN32\DEBUG\ TO WIN32\DEBUG\BULLETMAZE\VC141.PDB
^C:\USERS\PUDDING\DESKTOP\CA2BAD\CA2_CLEAN\BULLETMAZE\BULLETMAZE\SCENENODE.CPP
C:\USERS\PUDDING\DESKTOP\CA2BAD\CA2_CLEAN\BULLETMAZE\BULLETMAZE\WIN32\DEBUG\ TO WIN32\DEBUG\BULLETMAZE\VC141.PDB
^C:\USERS\PUDDING\DESKTOP\CA2BAD\CA2_CLEAN\BULLETMAZE\BULLETMAZE\SETTINGSSTATE.CPP
C:\USERS\PUDDING\DESKTOP\CA2BAD\CA2_CLEAN\BULLETMAZE\BULLETMAZE\WIN32\DEBUG\ TO WIN32\DEBUG\BULLETMAZE\VC141.PDB
^C:\USERS\PUDDING\DESKTOP\CA2BAD\CA2_CLEAN\BULLETMAZE\BULLETMAZE\SOUNDNODE.CPP
C:\USERS\PUDDING\DESKTOP\CA2BAD\CA2_CLEAN\BULLETMAZE\BULLETMAZE\WIN32\DEBUG\ TO WIN32\DEBUG\BULLETMAZE\VC141.PDB
^C:\USERS\PUDDING\DESKTOP\CA2BAD\CA2_CLEAN\BULLETMAZE\BULLETMAZE\SOUNDPLAYER.CPP
C:\USERS\PUDDING\DESKTOP\CA2BAD\CA2_CLEAN\BULLETMAZE\BULLETMAZE\WIN32\DEBUG\ TO WIN32\DEBUG\BULLETMAZE\VC141.PDB
^C:\USERS\PUDDING\DESKTOP\CA2BAD\CA2_CLEAN\BULLETMAZE\BULLETMAZE\SPRITENODE.CPP
C:\USERS\PUDDING\DESKTOP\CA2BAD\CA2_CLEAN\BULLETMAZE\BULLETMAZE\WIN32\DEBUG\ TO WIN32\DEBUG\BULLETMAZE\VC141.PDB
^C:\USERS\PUDDING\DESKTOP\CA2BAD\CA2_CLEAN\BULLETMAZE\BULLETMAZE\STATE.CPP
C:\USERS\PUDDING\DESKTOP\CA2BAD\CA2_CLEAN\BULLETMAZE\BULLETMAZE\WIN32\DEBUG\ TO WIN32\DEBUG\BULLETMAZE\VC141.PDB
^C:\USERS\PUDDING\DESKTOP\CA2BAD\CA2_CLEAN\BULLETMAZE\BULLETMAZE\STATESTACK.CPP
C:\USERS\PUDDING\DESKTOP\CA2BAD\CA2_CLEAN\BULLETMAZE\BULLETMAZE\WIN32\DEBUG\ TO WIN32\DEBUG\BULLETMAZE\VC141.PDB
^C:\USERS\PUDDING\DESKTOP\CA2BAD\CA2_CLEAN\BULLETMAZE\BULLETMAZE\TEXTNODE.CPP
C:\USERS\PUDDING\DESKTOP\CA2BAD\CA2_CLEAN\BULLETMAZE\BULLETMAZE\WIN32\DEBUG\ TO WIN32\DEBUG\BULLETMAZE\VC141.PDB
^C:\USERS\PUDDING\DESKTOP\CA2BAD\CA2_CLEAN\BULLETMAZE\BULLETMAZE\TITLESTATE.CPP
C:\USERS\PUDDING\DESKTOP\CA2BAD\CA2_CLEAN\BULLETMAZE\BULLETMAZE\WIN32\DEBUG\ TO WIN32\DEBUG\BULLETMAZE\VC141.PDB
^C:\USERS\PUDDING\DESKTOP\CA2BAD\CA2_CLEAN\BULLETMAZE\BULLETMAZE\UTILITY.CPP
C:\USERS\PUDDING\DESKTOP\CA2BAD\CA2_CLEAN\BULLETMAZE\BULLETMAZE\WIN32\DEBUG\ TO WIN32\DEBUG\BULLETMAZE\VC141.PDB
^C:\USERS\PUDDING\DESKTOP\CA2BAD\CA2_CLEAN\BULLETMAZE\BULLETMAZE\WORLD.CPP
C:\USERS\PUDDING\DESKTOP\CA2BAD\CA2_CLEAN\BULLETMAZE\BULLETMAZE\WIN32\DEBUG\ TO WIN32\DEBUG\BULLETMAZE\VC141.PDB
